^F:\MY_GAME\SKILLBOX\C++\HW_15\HW_15\HW_15.CPP
F:\MY_GAME\SKILLBOX\C++\HW_15\HW_15\DEBUG\VC142.PDB
F:\MY_GAME\SKILLBOX\C++\HW_15\HW_15\DEBUG\VC142.IDB
F:\MY_GAME\SKILLBOX\C++\HW_15\HW_15\DEBUG\HW_15.OBJ
